Proteomic data processing
…
##extract the results and save it
deqmsResults = outputResult(fit4, coef_col = 1)
geneSymbols = pepData[,1:2]
deqmsOutput = as_tibble(deqmsResults) %>%
  dplyr::mutate(accession = rownames(deqmsResults)) %>%
  dplyr::left_join(geneSymbols) %>%
  dplyr::select(accession, symbol, logFC:sca.adj.pval)

Joining, by = "accession"

deqmsOutput

# A tibble: 9,446 x 13
   accession symbol  logFC AveExpr      t  P.Value  adj.P.Val     B gene   count
   <chr>     <chr>   <dbl>   <dbl>  <dbl>    <dbl>      <dbl> <dbl> <chr>  <dbl>
 1 Q13303    KCNAB2 -4.20     18.6 -45.7  9.20e-10 0.00000869 11.2  Q13303    10
 2 P32004    L1CAM   4.38     18.7  21.7  1.44e- 7 0.000340    8.15 P32004    36
 3 P14210    HGF     3.55     23.8  30.7  1.38e- 8 0.0000653   9.83 P14210     2
 4 P23508    MCC     2.94     17.4  20.3  2.25e- 7 0.000354    7.78 P23508    15
 5 P46013    MKI67  -0.960    20.5  -9.93 2.61e- 5 0.00173     3.25 P46013   195
 6 P52655    GTF2A1  3.21     22.0  26.3  3.94e- 8 0.000124    9.13 P52655     4
 7 P12429    ANXA3   1.85     21.4  17.3  6.59e- 7 0.000444    6.85 P12429    27
 8 P16144    ITGB4   1.48     19.2  14.1  2.58e- 6 0.000697    5.57 P16144    48
 9 Q14315    FLNC    1.48     21.5  12.7  5.29e- 6 0.000921    4.87 Q14315   130
10 O94900    TOX     4.37     18.3  18.7  4.02e- 7 0.000444    7.29 O94900     4
# ... with 9,436 more rows, and 3 more variables: sca.t <dbl>,
#   sca.P.Value <dbl>, sca.adj.pval <dbl>
…
