osteosarcoma RNAseq
…
##########################################################################################
##read in the sample info sheet
sampleInfo = read_tsv(paste(baseRepository, '/sequencing20220629_osteosarcomaRnaSeqForBrian/gdc_sample_sheet.2022-06-29.tsv', sep = ''), 
                      show_col_types = FALSE) %>%
  dplyr::rename(folderId = `File ID`, fileId = `File Name`, caseId = `Case ID`) %>%
  dplyr::select(folderId, fileId, caseId) %>%
  dplyr::mutate(filePath = file.path(baseRepository, 
                                     'sequencing20220629_osteosarcomaRnaSeqForBrian',
                                     folderId,
                                     fileId))

##take a look at the data
sampleInfo

# A tibble: 88 x 4
   folderId                             fileId                   caseId filePath
   <chr>                                <chr>                    <chr>  <chr>   
 1 812128e8-ad90-4712-bbbc-7596f003a0b0 1461fa2c-c223-4fcc-af2b~ TARGE~ C:/User~
 2 f9f2204a-d5ea-49ba-a8b7-475187815e93 7b5bee09-ff5f-410e-9411~ TARGE~ C:/User~
 3 abf2e6b9-234d-4738-8d12-9cf0a70e969a 4973d6a1-f06a-4041-8c6d~ TARGE~ C:/User~
 4 00411dbf-7487-46ff-b26a-85761719779e c9372691-13e4-49a3-999c~ TARGE~ C:/User~
 5 d8496e42-c19c-4537-8fb1-a9c6080822b0 70d421c3-5902-4ba7-8c46~ TARGE~ C:/User~
 6 6c1b177c-d0db-4b24-b96a-d149e4808cee bccda237-85b3-4029-8a1a~ TARGE~ C:/User~
 7 3239332f-b9fc-4ca2-afd5-b927783c8e8d 79a11af7-22f2-4b7e-bb5b~ TARGE~ C:/User~
 8 8de6d0ef-6402-4267-940c-226236745e3a 7a86377b-ca40-4ece-a2bc~ TARGE~ C:/User~
 9 08e483ea-e335-46f1-b9a6-8ce4ed6c23cf 19d4ef18-a88a-466d-94c2~ TARGE~ C:/User~
10 b88a3ce0-2059-4afc-8c88-84d8664789fc 0d31d9cc-b5af-4f9d-9411~ TARGE~ C:/User~
# ... with 78 more rows
…
##
rnaData

# A tibble: 5,338,080 x 4
   ensg               symbol     tpm sampleId        
   <chr>              <chr>    <dbl> <chr>           
 1 ENSG00000000003.15 TSPAN6   34.0  TARGET-40-PAKZZK
 2 ENSG00000000005.6  TNMD      0    TARGET-40-PAKZZK
 3 ENSG00000000419.13 DPM1     68.6  TARGET-40-PAKZZK
 4 ENSG00000000457.14 SCYL3     7.34 TARGET-40-PAKZZK
 5 ENSG00000000460.17 C1orf112  5.58 TARGET-40-PAKZZK
 6 ENSG00000000938.13 FGR       5.06 TARGET-40-PAKZZK
 7 ENSG00000000971.16 CFH      48.6  TARGET-40-PAKZZK
 8 ENSG00000001036.14 FUCA2    60.2  TARGET-40-PAKZZK
 9 ENSG00000001084.13 GCLC      5.57 TARGET-40-PAKZZK
10 ENSG00000001167.14 NFYA     39.4  TARGET-40-PAKZZK
# ... with 5,338,070 more rows
…
