Sorensen RNA-seq data processing
…
Data processing

The first thing to do is to make a sample annotation table. We have an annotation table that we made in excel. The code below will get the file paths for the quant files, read in our transcriptome gtf, and using tximport to read in the entire dataset.

##########################################################################################
#read a table containing the sample information for our RNAseq runs
samples = read_tsv(paste(baseRepository, '/defineCandidatesExpressionData/sorensenEwsA673RnaSeq/sampleInfo.txt', sep = ''), show_col_types = FALSE) %>%
  dplyr::mutate(accession = paste(sampleName,'_',batch, sep = '')) %>%
  dplyr::select(accession, sampleName:batch)
samples

# A tibble: 24 × 7
   accession  sampleName cell          treatment barcode experiment batch
   <chr>      <chr>      <chr>         <chr>     <chr>   <chr>      <chr>
 1 day0_setA  day0       a673shEwsFli1 none      ATCACG  PX1955     setA 
 2 day0_setB  day0       a673shEwsFli1 none      ATCACG  PX1956     setB 
 3 day0_setC  day0       a673shEwsFli1 none      ATCACG  PX1957     setC 
 4 day7_setA  day7       a673shEwsFli1 none      CGATGT  PX1955     setA 
 5 day7_setB  day7       a673shEwsFli1 none      CGATGT  PX1956     setB 
 6 day7_setC  day7       a673shEwsFli1 none      CGATGT  PX1957     setC 
 7 day9_setA  day9       a673shEwsFli1 none      TTAGGC  PX1955     setA 
 8 day9_setB  day9       a673shEwsFli1 none      TTAGGC  PX1956     setB 
 9 day9_setC  day9       a673shEwsFli1 none      TTAGGC  PX1957     setC 
10 day10_setA day10      a673shEwsFli1 none      TGACCA  PX1955     setA 
# … with 14 more rows
…
