sorensenSurface
…
for (i in 1:length(sampleInfo)){
  psmTemp = read_tsv(psmFiles[i], show_col_types = FALSE) %>%
    dplyr::select(Peptide, `Protein ID`, Gene, Spectrum) %>%
    dplyr::rename(sequence = Peptide, 
                  accession = `Protein ID`,
                  symbol = Gene) %>%
    dplyr::mutate(dataset = tolower(sampleInfo[i]),
                  scan = as.numeric(sub('.*Surface_Plex[0-9]\\.(.*)\\.[0-9]+\\.[0-9]+', '\\1', Spectrum))) %>%
    dplyr::select(-Spectrum)
  ##
  psmData = rbind(psmData, psmTemp)
}
psmData

# A tibble: 57,596 x 5
   sequence      accession symbol  dataset  scan
   <chr>         <chr>     <chr>   <chr>   <dbl>
 1 GGSDGGGSHR    P14209    CD99    plex1    1614
 2 NEEDEGHSNSSPR Q14103    HNRNPD  plex1    1752
 3 TGSQDQEVHR    P17813    ENG     plex1    1781
 4 EQGQNLAR      P61224    RAP1B   plex1    2192
 5 NANAEPAVQR    P14209    CD99    plex1    2212
 6 TDNSESCVHGK   P22413    ENPP1   plex1    2213
 7 EEQTPQNK      P00338    LDHA    plex1    2284
 8 HWDQNER       P08195    SLC3A2  plex1    2325
 9 DTDGGPK       P53985    SLC16A1 plex1    2357
10 KPAGAAK       P10412    H1-4    plex1    2369
# ... with 57,586 more rows
…
