sorensenTimecourseProtein
…
  psmTemp = read_tsv(psmFiles[i], show_col_types = FALSE) %>%
    dplyr::select(Peptide, `Protein ID`, Gene, Spectrum) %>%
    dplyr::rename(sequence = Peptide, 
                  accession = `Protein ID`,
                  symbol = Gene) %>%
    dplyr::mutate(dataset = tolower(sampleInfo[i]),
                  scan = as.numeric(sub('.*_HpH_[0-9]+\\.(.*)\\.[0-9]+\\.[0-9]+', '\\1', Spectrum)),
                  fraction = sub('.*_HpH_(.*)\\.[0-9]+\\.[0-9]+\\.[0-9]+', '\\1', Spectrum)) %>%
    dplyr::select(-Spectrum)
  ##
  psmData = rbind(psmData, psmTemp)
}
psmData

# A tibble: 556,568 x 6
   sequence      accession symbol   dataset  scan fraction
   <chr>         <chr>     <chr>    <chr>   <dbl> <chr>   
 1 ALVELNGVSLIPK Q9UHL9    GTF2IRD1 seta     2633 1       
 2 THQQQHQAAVR   Q6ZN55    ZNF574   seta     2730 1       
 3 MNTNPSR       P40429    RPL13A   seta     2766 1       
 4 AHATGAGPAGR   Q9Y490    TLN1     seta     3081 1       
 5 VTSTQQQTR     P49023    PXN      seta     3105 1       
 6 NVSSATHSAR    Q9UPN4    CEP131   seta     3109 1       
 7 TIEAHSR       Q16555    DPYSL2   seta     3114 1       
 8 RAEATAASTSR   O95721    SNAP29   seta     3118 1       
 9 SGGGGHGSSR    O00571    DDX3X    seta     3124 1       
10 RSTITSR       Q99880    H2BC13   seta     3136 1       
# ... with 556,558 more rows
…
