sorensenTimecourseRna
…
Data processing

Read in the sample annotation details and make the txdb that we can use later on for annotation gene identifiers.

##########################################################################################
#read a table containing the sample information for our RNAseq runs
samples = read_tsv(paste(baseRepository, '/sequencing20210421_a673TimecourseRnaSeqOutput/sampleInfo.txt', sep = ''))
samples

# A tibble: 24 x 6
   sampleName cell          treatment barcode experiment batch
   <chr>      <chr>         <chr>     <chr>   <chr>      <chr>
 1 day0       a673shEwsFli1 none      ATCACG  PX1955     setA 
 2 day0       a673shEwsFli1 none      ATCACG  PX1956     setB 
 3 day0       a673shEwsFli1 none      ATCACG  PX1957     setC 
 4 day7       a673shEwsFli1 none      CGATGT  PX1955     setA 
 5 day7       a673shEwsFli1 none      CGATGT  PX1956     setB 
 6 day7       a673shEwsFli1 none      CGATGT  PX1957     setC 
 7 day9       a673shEwsFli1 none      TTAGGC  PX1955     setA 
 8 day9       a673shEwsFli1 none      TTAGGC  PX1956     setB 
 9 day9       a673shEwsFli1 none      TTAGGC  PX1957     setC 
10 day10      a673shEwsFli1 none      TGACCA  PX1955     setA 
# ... with 14 more rows
…
