CR131b Translatome Analysis
…
##check if all of the quant files exist
files = samples$files
all(file.exists(files))

[1] TRUE

##view the sample table
samples

# A tibble: 36 x 8
   sample        library index    mainFolder subFolder treatment processed files
   <chr>         <chr>   <chr>    <chr>      <chr>     <chr>     <chr>     <chr>
 1 chDmsoTotal_1 F113634 CATTGCC~ IX10693    HHWHVDSX~ dmso      yes       C:/U~
 2 chDmsoTotal_2 F113635 CTAGGTG~ F113635    150bp     dmso      yes       C:/U~
 3 chDmsoTotal_3 F113636 TCCGTAT~ F113636    150bp     dmso      yes       C:/U~
 4 chCr2Total_1  F113637 ACGATGA~ F113637    150bp     cr2       yes       C:/U~
 5 chCr2Total_2  F113638 GTCGGTA~ F113638    150bp     cr2       yes       C:/U~
 6 chCr2Total_3  F113639 TCGAAGG~ IX10694    HHWHVDSX~ cr2       yes       C:/U~
 7 chCr4Total_1  F113640 AGAAGCG~ IX10693    HHWHVDSX~ cr4       yes       C:/U~
 8 chCr4Total_2  F113641 CTCTACT~ F113641    150bp     cr4       yes       C:/U~
 9 chCr4Total_3  F113642 CTAGGCA~ F113642    150bp     cr4       yes       C:/U~
10 chCr8Total_1  F113643 TGGAGTT~ F113643    150bp     cr8       yes       C:/U~
# ... with 26 more rows
…
